{
  "project_info": {
    "project_number": "427378885936",
    "firebase_url": "https://notificacionesemmanuel.firebaseio.com",
    "project_id": "notificacionesemmanuel",
    "storage_bucket": "notificacionesemmanuel.appspot.com"
  },
  "client": [
    {
      "client_info": {
        "mobilesdk_app_id": "1:427378885936:android:395322437e05dde138f4f5",
        "android_client_info": {
          "package_name": "com.example.plataformauptsorani"
        }
      },
      "oauth_client": [
        {
          "client_id": "427378885936-n7pakugacu2g1nafbplsfog9gjf5loin.apps.googleusercontent.com",
          "client_type": 1,
          "android_info": {
            "package_name": "com.example.plataformauptsorani",
            "certificate_hash": "e7431ba99907543dfd78deae8cc78a22ad57573f"
          }
        },
        {
          "client_id": "427378885936-vnv6rojs6qsmggpsaqs2rnu97a0lka3b.apps.googleusercontent.com",
          "client_type": 3
        }
      ],
      "api_key": [
        {
          "current_key": "AIzaSyCe-r28NnHJ9EBxQuSljndAV6jWWVBD_uw"
        }
      ],
      "services": {
        "appinvite_service": {
          "other_platform_oauth_client": [
            {
              "client_id": "427378885936-vnv6rojs6qsmggpsaqs2rnu97a0lka3b.apps.googleusercontent.com",
              "client_type": 3
            }
          ]
        }
      }
    }
  ],
  "configuration_version": "1"
}